<svg xmlns="http://www.w3.org/2000/svg" viewBox="0 0 33 30">
  <g id="Group_3952" data-name="Group 3952" transform="translate(-115 -25)">
    <path id="Union_2" data-name="Union 2" d="M31.765,29.974a28.048,28.048,0,0,0-6.129-.724,19.073,19.073,0,0,0-4.552.516,9.112,9.112,0,0,1,3.927-2.137,14.155,14.155,0,0,1,3.676-.477,2.59,2.59,0,0,0,2.572-2.594V11.819h.732A1.013,1.013,0,0,1,33,12.834v16.15a1.015,1.015,0,0,1-.379.794.994.994,0,0,1-.629.223A1.044,1.044,0,0,1,31.765,29.974ZM.38,29.777A1.015,1.015,0,0,1,0,28.984V12.834a1.013,1.013,0,0,1,1.009-1.015h.732v12.74a2.591,2.591,0,0,0,2.572,2.594,14.155,14.155,0,0,1,3.676.477,9.106,9.106,0,0,1,3.927,2.137,19.085,19.085,0,0,0-4.552-.516,28.048,28.048,0,0,0-6.129.724A1.033,1.033,0,0,1,1.008,30,.994.994,0,0,1,.38,29.777Zm17.037-.689V20.616L29.743,8.392a1.3,1.3,0,0,1,.126.088.934.934,0,0,1,.381.731V24.656a1.19,1.19,0,0,1-1.3,1.03,25.217,25.217,0,0,0-5.593.617,14.286,14.286,0,0,0-5.943,2.787l0,0Zm-1.835,0A14.285,14.285,0,0,0,9.638,26.3a25.224,25.224,0,0,0-5.594-.617,1.189,1.189,0,0,1-1.3-1.03V9.212a.934.934,0,0,1,.381-.731,1.279,1.279,0,0,1,.126-.088L15.583,20.616V29.09Zm-.456-14.542A1.375,1.375,0,1,1,16.5,15.909,1.369,1.369,0,0,1,15.126,14.546Zm4.457-2.1a4.438,4.438,0,0,0-3.049-1.446h-.065a4.435,4.435,0,0,0-3.049,1.446.834.834,0,0,1-1.247-.007,1.016,1.016,0,0,1,.006-1.353,6.125,6.125,0,0,1,4.29-2h.065a6.125,6.125,0,0,1,4.29,2,1.016,1.016,0,0,1,.006,1.353.834.834,0,0,1-1.247.007Zm3.626-2.744A9.052,9.052,0,0,0,16.5,6.529,9.049,9.049,0,0,0,9.792,9.707a.846.846,0,0,1-1.275.006,1.063,1.063,0,0,1,0-1.4A10.761,10.761,0,0,1,16.5,4.546,10.763,10.763,0,0,1,24.488,8.31a1.063,1.063,0,0,1,0,1.4.845.845,0,0,1-1.275-.006Zm3.6-2.758A13.438,13.438,0,0,0,16.5,2.034,13.438,13.438,0,0,0,6.2,6.949.876.876,0,0,1,4.88,7a1.084,1.084,0,0,1-.046-1.438A15.211,15.211,0,0,1,16.5,0,15.211,15.211,0,0,1,28.167,5.562,1.084,1.084,0,0,1,28.121,7a.876.876,0,0,1-1.316-.051Z" transform="translate(115 25)" fill="#19a0ff"/>
  </g>
</svg>
